<svg width="23" height="15" viewBox="0 0 23 15" fill="none" xmlns="http://www.w3.org/2000/svg">
<path d="M20.625 4.49219C21.7578 5.54688 22.4609 6.99219 22.4609 8.63281C22.4609 8.67188 22.4609 8.67188 22.4609 8.67188C22.4609 11.7578 19.9609 14.2969 16.8359 14.2969C15.3906 14.2969 14.0234 13.7109 13.0469 12.7734L11.25 14.7266L9.41406 12.7734C8.4375 13.7109 7.10938 14.2578 5.625 14.2578C2.53906 14.2578 0 11.7578 0 8.63281C0 6.99219 0.703125 5.54688 1.83594 4.49219L0 2.5H4.0625C6.09375 1.13281 8.59375 0.3125 11.25 0.3125C13.9062 0.3125 16.3672 1.13281 18.3984 2.5H22.5L20.625 4.49219ZM5.625 12.4609C7.69531 12.4609 9.41406 10.7422 9.41406 8.67188C9.41406 6.5625 7.69531 4.84375 5.625 4.84375C3.51562 4.84375 1.79688 6.5625 1.79688 8.67188C1.79688 10.7422 3.51562 12.4609 5.625 12.4609ZM11.25 8.55469C11.25 6.05469 13.0469 3.90625 15.4688 2.96875C14.1406 2.42188 12.7344 2.14844 11.2109 2.14844C9.72656 2.14844 8.32031 2.42188 6.99219 2.96875C9.41406 3.90625 11.25 6.05469 11.25 8.55469ZM16.8359 12.4609C18.9453 12.4609 20.6641 10.7422 20.6641 8.67188C20.6641 6.5625 18.9453 4.84375 16.8359 4.84375C14.7656 4.84375 13.0469 6.5625 13.0469 8.67188C13.0469 10.7422 14.7656 12.4609 16.8359 12.4609ZM5.625 6.67969C6.71875 6.67969 7.61719 7.53906 7.61719 8.67188C7.61719 9.76562 6.71875 10.6641 5.625 10.6641C4.49219 10.6641 3.59375 9.76562 3.59375 8.67188C3.59375 7.53906 4.49219 6.67969 5.625 6.67969ZM16.8359 6.67969C17.9688 6.67969 18.8281 7.53906 18.8281 8.67188C18.8281 9.76562 17.9688 10.6641 16.8359 10.6641C15.7422 10.6641 14.8438 9.76562 14.8438 8.67188C14.8438 7.53906 15.7422 6.67969 16.8359 6.67969Z" fill="white"/>
</svg>
