<svg width='120' height='40' fill='none' xmlns='http://www.w3.org/2000/svg'>
    <path d='M50.073 16.013h-3.215v2.318h3.215v-2.318ZM49.782 37.682h-3.215V40h3.215v-2.318ZM56.73 19.27l-2.6-1.89-1.365 1.874 2.6 1.891 1.365-1.874ZM43.728 36.767l-2.6-1.89-1.365 1.874 2.6 1.89 1.365-1.874ZM54.883 35.078l-2.622 1.859 1.342 1.89 2.623-1.859-1.343-1.89ZM42.551 17.372l-2.622 1.86 1.342 1.89 2.623-1.86-1.343-1.89ZM37.562 22.5l-1.02 3.047 2.2.736 1.02-3.047-2.2-.736ZM57.653 29.66l-1.02 3.047 2.2.736 1.02-3.047-2.2-.736ZM36.284 29.976l.896 3.086 2.228-.646-.896-3.086-2.228.646ZM56.729 23.527l.896 3.086 2.228-.646-.896-3.086-2.228.646Z'
          fill='#0096FF'/>
    <path fill-rule='evenodd' clip-rule='evenodd'
          d='M58.164 28.021c0 5.47-4.438 9.904-9.912 9.904-5.474 0-9.912-4.434-9.912-9.904s4.438-9.903 9.912-9.903c5.474 0 9.912 4.434 9.912 9.903Zm-9.912 6.015a6.017 6.017 0 0 0 6.02-6.015 6.017 6.017 0 0 0-6.02-6.015 6.017 6.017 0 0 0-6.02 6.015 6.017 6.017 0 0 0 6.02 6.015Z'
          fill='#0096FF'/>
    <path d='M48.252 32.895a4.876 4.876 0 0 0 4.878-4.874 4.876 4.876 0 0 0-4.878-4.874 4.876 4.876 0 0 0-4.878 4.874 4.876 4.876 0 0 0 4.878 4.874Z'
          fill='#0096FF'/>
    <path d='M42.998.637 40.06 0l-.411 1.89 2.938.638.41-1.89ZM48.207 5.577l-1.774-2.425-1.563 1.142 1.774 2.425 1.563-1.142ZM34.254 15.084 32.48 12.66l-1.563 1.142 1.774 2.425 1.563-1.143ZM34.254 4.141l2.536-1.613L35.75.896l-2.535 1.613 1.04 1.632ZM43.767 18.228l2.47-1.714-1.105-1.589-2.47 1.714 1.105 1.589ZM48.583 12.892l.516-2.96-1.908-.331-.516 2.96 1.908.331ZM31.93 9.678l.515-2.96-1.908-.331-.515 2.959 1.907.332ZM39.56 17.276l-2.938-.637-.41 1.89 2.937.638.411-1.89Z'
          fill='#66F'/>
    <path fill-rule='evenodd' clip-rule='evenodd'
          d='M47.284 9.6c0 4.263-3.458 7.718-7.724 7.718-4.265 0-7.723-3.456-7.723-7.718 0-4.262 3.458-7.717 7.723-7.717 4.266 0 7.724 3.455 7.724 7.717Zm-7.724 4.218A4.219 4.219 0 0 0 43.78 9.6c0-2.329-1.889-4.217-4.22-4.217A4.219 4.219 0 0 0 35.34 9.6c0 2.33 1.89 4.218 4.22 4.218Z'
          fill='#66F'/>
    <path d='M5.26 17.172v-5.438h3.904c3.307 0 5.143-2.271 5.143-4.933 0-2.684-1.814-4.933-5.143-4.933H2v15.304h3.26Zm3.468-8.306H5.26v-4.13h3.467c1.286 0 2.25.78 2.25 2.065 0 1.262-.964 2.065-2.25 2.065Zm20 8.306-3.444-5.828c1.653-.39 3.352-1.835 3.352-4.543 0-2.845-1.951-4.933-5.143-4.933h-7.164v15.304h3.26v-5.438h2.388l3.008 5.438h3.743Zm-5.717-8.306h-3.422v-4.13h3.422c1.309 0 2.296.78 2.296 2.065s-.987 2.065-2.296 2.065ZM28.322 36.689c3.376 0 5.305-1.858 6.407-3.763l-2.802-1.354c-.643 1.262-2.02 2.226-3.605 2.226-2.778 0-4.799-2.134-4.799-5.025 0-2.89 2.021-5.024 4.8-5.024 1.584 0 2.961.986 3.604 2.225l2.802-1.376c-1.08-1.905-3.031-3.74-6.407-3.74-4.592 0-8.151 3.212-8.151 7.915 0 4.704 3.559 7.916 8.151 7.916ZM67.361 36.76c4.8 0 8.129-3.03 8.129-7.64 0-4.613-3.33-7.664-8.129-7.664h-6.039v15.303h6.04Zm0-2.869h-2.778v-9.567h2.778c3.146 0 4.8 2.088 4.8 4.795 0 2.593-1.769 4.772-4.8 4.772Zm21.28 2.868v-2.868h-7.577v-3.464h7.417v-2.868h-7.417v-3.235h7.578v-2.868H77.804v15.303h10.838Zm14.949 0-3.444-5.827c1.653-.39 3.352-1.836 3.352-4.543 0-2.845-1.952-4.933-5.143-4.933H91.19v15.303h3.26v-5.437h2.388l3.008 5.437h3.743Zm-5.717-8.305H94.45v-4.13h3.422c1.308 0 2.296.78 2.296 2.065s-.988 2.065-2.296 2.065Zm13.514 8.58c4.133 0 6.131-2.11 6.131-4.91 0-5.712-8.794-4.083-8.794-6.515 0-.918.78-1.537 2.181-1.537 1.562 0 3.215.527 4.455 1.674l1.814-2.386c-1.516-1.4-3.536-2.133-5.97-2.133-3.605 0-5.81 2.11-5.81 4.657 0 5.759 8.818 3.9 8.818 6.608 0 .872-.873 1.698-2.664 1.698a6.718 6.718 0 0 1-4.868-2.065l-1.768 2.478c1.424 1.445 3.536 2.432 6.475 2.432Z'
          fill='#000000'/>
</svg>